{
    "fields": [
        {
            "name": "galpon_code",
            "type": "select",
            "options":
            {
                
            }
        },
        {
            "name": "feeders_quantity",
            "type": "integer"
        },
        {
            "name": "reserved_feeders_quantity",
            "type": "integer"
        },
        {
            "name": "drinking_fountains_quantity",
            "type": "integer"
        },
        {
            "name": "reserved_drinking_fountains_quantity",
            "type": "integer"
        },
        {
            "name": "light_bulbs",
            "type": "integer"
        },
        {
            "name": "reserved_light_bulbs",
            "type": "integer"
        },
        {
            "name": "chiken_nests",
            "type": "integer"
        },
        {
            "name": "is_thermometer",
            "type": "boolean"
        }
    ],
    "validations": [
        
    ]
}


